<?xml version="1.0" standalone="no"?>
<!DOCTYPE svg PUBLIC "-//W3C//DTD SVG 20010904//EN"
        "http://www.w3.org/TR/2001/REC-SVG-20010904/DTD/svg10.dtd">
<svg version="1.0" xmlns="http://www.w3.org/2000/svg"
     width="1865.000000pt" height="2055.000000pt" viewBox="0 0 1865.000000 2055.000000"
     preserveAspectRatio="xMidYMid meet">

    <g transform="translate(0.000000,2055.000000) scale(0.100000,-0.100000)"
       fill="#000000" stroke="none">
        <path d="M10490 18261 c0 -19 -15 -19 -487 -24 -443 -4 -518 -7 -670 -33 l-33
-5 0 -579 0 -580 -1325 0 -1325 0 0 140 c0 77 -2 140 -4 140 -2 0 -61 -32
-130 -71 l-126 -71 0 -199 0 -199 1580 0 1580 0 2 598 3 597 598 3 597 2 0
150 0 150 -130 0 c-121 0 -130 -1 -130 -19z"/>
        <path d="M11150 17881 l0 -371 -602 -2 -603 -3 -3 -547 -2 -548 -1965 0 -1965
0 0 260 c0 143 -3 260 -6 260 -3 0 -46 -28 -95 -62 l-89 -61 0 -289 0 -288
2155 0 2155 0 0 545 0 545 605 0 605 0 0 454 0 454 -27 6 c-16 2 -58 8 -95 11
l-68 7 0 -371z"/>
        <path d="M8993 18153 l-33 -4 0 -390 0 -389 -985 0 -985 0 0 65 0 65 -55 -27
-55 -27 0 -93 0 -93 543 -2 c298 -2 791 -2 1095 0 l552 2 0 450 0 450 -22 -2
c-13 0 -38 -3 -55 -5z"/>
        <path d="M12020 17514 l0 -614 -595 0 -595 0 0 -515 0 -515 33 0 c17 0 42 -3
55 -6 l22 -6 0 461 0 461 595 0 595 0 -2 662 -3 663 -52 11 -53 12 0 -614z"/>
        <path d="M12660 17171 l0 -801 -590 0 -590 0 0 -289 c0 -160 3 -292 8 -294 4
-3 28 -8 54 -12 l48 -7 2 243 3 244 588 3 587 2 0 840 0 839 -41 11 c-22 6
-47 14 -55 17 -12 4 -14 -103 -14 -796z"/>
        <path d="M13630 16940 l0 -680 590 0 590 0 0 -610 0 -610 1190 0 1190 0 0
-271 0 -270 55 47 55 48 0 278 0 278 -1187 2 -1188 3 -3 608 -2 607 -585 0
-585 0 0 600 c0 330 -2 600 -4 600 -2 0 -29 11 -60 25 l-56 25 0 -680z"/>
        <path d="M14270 17045 c0 -196 3 -257 13 -260 6 -3 192 -4 412 -3 l400 3 -80
57 -80 57 -272 1 -273 0 0 169 0 170 -54 30 c-29 17 -56 31 -60 31 -3 0 -6
-115 -6 -255z"/>
        <path d="M17467 16642 l-37 -38 0 -97 0 -97 -107 0 -108 0 -135 -130 -135
-129 373 -1 372 0 0 171 0 171 -86 94 c-48 52 -89 94 -93 94 -4 0 -24 -17 -44
-38z"/>
        <path d="M15462 16008 l3 -493 1152 -3 1153 -2 2 -229 3 -230 53 46 52 45 0
244 0 244 -1150 0 -1150 0 0 389 0 389 -47 39 c-27 22 -54 43 -61 47 -10 6
-12 -92 -10 -486z"/>
        <path d="M5097 16225 l-57 -54 2 -328 3 -328 1152 -3 1153 -2 2 -279 3 -279
52 31 52 32 1 308 0 307 -1150 0 -1150 0 -2 324 -3 325 -58 -54z"/>
        <path d="M11992 15833 l3 -166 38 -13 37 -13 0 145 0 144 1175 0 1175 0 0
-856 0 -857 40 -43 40 -44 0 935 0 935 -1255 0 -1255 0 2 -167z"/>
        <path d="M12130 15751 c0 -108 3 -130 16 -135 9 -3 18 -6 20 -6 2 0 4 52 4
115 l0 115 55 0 54 0 3 -112 3 -113 93 -3 92 -3 0 116 0 115 50 0 50 0 0 -189
c0 -163 2 -190 16 -195 9 -3 18 -6 20 -6 2 0 4 97 4 215 l0 215 -90 0 -90 0 0
-116 0 -115 -52 3 -53 3 -3 113 -3 112 -94 0 -95 0 0 -129z"/>
        <path d="M12722 15638 l3 -243 73 -3 72 -3 0 -29 c0 -19 7 -33 20 -40 19 -10
20 -8 20 50 l0 60 -75 0 -75 0 0 205 0 205 55 0 55 0 0 -110 0 -110 95 0 95 0
0 110 0 110 50 0 50 0 0 -205 0 -205 -75 0 -75 0 0 -83 c0 -77 9 -107 32 -107
4 0 8 34 8 75 l0 75 75 0 75 0 0 245 0 245 -90 0 -90 0 0 -110 0 -110 -55 0
-55 0 0 110 0 110 -95 0 -95 0 2 -242z"/>
        <path d="M13310 15635 l0 -245 75 0 76 0 -3 -87 -3 -88 -72 -3 -73 -3 0 -57
c0 -53 11 -82 32 -82 4 0 8 22 8 50 l0 49 73 3 72 3 3 128 3 127 -76 0 -75 0
0 205 0 205 50 0 50 0 0 -110 0 -110 95 0 95 0 0 110 0 110 55 0 55 0 0 -205
0 -205 -75 0 -75 0 0 -130 0 -130 240 0 240 0 0 135 0 135 -75 0 -75 0 0 200
0 200 50 0 49 0 3 -112 3 -113 93 -3 92 -3 0 116 0 115 60 0 60 0 0 -200 0
-200 -80 0 -80 0 0 -130 0 -130 80 0 80 0 0 -200 0 -200 -60 0 -60 0 0 105 0
105 -165 0 -165 0 0 -130 0 -130 75 0 75 0 0 -83 c0 -77 9 -107 32 -107 4 0 8
52 8 115 l0 115 -75 0 -75 0 0 90 0 90 125 0 125 0 0 -105 0 -105 100 0 100 0
0 240 0 240 -80 0 -80 0 0 90 0 90 80 0 80 0 0 240 0 240 -100 0 -100 0 0
-116 0 -115 -52 3 -53 3 -3 113 -3 112 -89 0 -90 0 0 -240 0 -240 75 0 75 0 0
-95 0 -95 -200 0 -200 0 0 90 0 89 73 3 72 3 3 243 2 242 -95 0 -95 0 0 -110
0 -110 -55 0 -55 0 0 110 0 110 -90 0 -90 0 0 -245z"/>
        <path d="M4448 15566 l-58 -68 0 -229 0 -229 1190 0 1190 0 0 -265 c0 -146 3
-265 6 -265 3 0 30 21 60 47 l54 47 0 273 0 273 -1190 0 -1190 0 -2 242 -3
241 -57 -67z"/>
        <path d="M8527 15623 c-11 -10 -8 -73 3 -73 13 0 212 69 219 75 2 3 -45 5
-106 5 -60 0 -113 -3 -116 -7z"/>
        <path d="M13145 15185 c50 -31 55 -31 55 0 0 23 -3 25 -47 25 l-48 0 40 -25z"/>
        <path d="M3948 14934 l-38 -57 0 -1208 0 -1209 -575 0 -574 0 -9 -32 -8 -33
619 -3 c341 -1 622 -1 624 1 2 2 2 587 1 1301 l-3 1297 -37 -57z"/>
        <path d="M13480 14985 c0 -2 13 -11 30 -20 20 -11 59 -15 135 -15 l105 0 0
-80 c0 -69 3 -81 20 -90 19 -10 20 -8 20 100 l0 110 -155 0 c-85 0 -155 -2
-155 -5z"/>
        <path d="M3836 14775 c-21 -31 -20 -35 4 -35 16 0 20 7 20 30 0 36 -3 37 -24
5z"/>
        <path d="M3677 14531 c-12 -21 -17 -51 -17 -115 l0 -86 -54 0 c-50 0 -66 -9
-66 -36 0 -2 36 -4 80 -4 l79 0 3 113 3 112 50 0 50 0 3 -202 2 -203 -75 0
-75 0 0 -130 0 -130 75 0 75 0 -2 -197 -3 -198 -52 -3 -53 -3 0 110 0 111 -95
0 -95 0 0 -110 0 -110 -50 0 -50 0 0 200 0 200 75 0 75 0 0 135 0 135 -64 0
c-60 0 -76 -8 -76 -36 0 -2 23 -4 50 -4 l50 0 0 -95 0 -95 -75 0 -75 0 0 -240
0 -240 90 0 90 0 0 110 0 110 55 0 55 0 0 -110 0 -111 93 3 92 3 0 235 0 235
-72 3 -73 3 0 89 0 89 73 3 72 3 0 240 0 240 -75 3 c-74 3 -76 2 -93 -27z"/>
        <path d="M14187 14554 c-4 -4 -7 -31 -7 -59 0 -38 5 -56 18 -68 28 -26 32 -21
32 39 l0 55 48 -3 47 -3 3 -106 c2 -92 5 -109 23 -125 19 -18 20 -17 17 127
l-3 144 -85 3 c-47 1 -89 0 -93 -4z"/>
        <path d="M11140 13954 c-832 -58 -1471 -222 -2120 -545 -691 -344 -1296 -825
-1893 -1507 -65 -74 -116 -136 -114 -138 2 -2 195 84 428 193 l424 196 395 68
c217 37 404 68 415 68 l20 0 -20 -9 c-11 -5 -92 -37 -180 -71 -422 -164 -722
-316 -1035 -524 -203 -135 -343 -249 -518 -419 -119 -116 -337 -361 -365 -411
-4 -7 50 23 120 67 163 102 451 243 618 303 230 83 504 144 715 159 47 4 108
9 136 12 l52 5 65 97 c174 260 388 464 726 691 153 102 273 175 636 386 340
197 563 348 736 497 64 54 72 58 165 78 143 31 379 38 514 15 215 -35 400
-118 593 -264 27 -20 109 -105 184 -188 112 -127 138 -151 153 -143 9 5 71 42
136 83 l119 73 690 154 c380 84 692 155 694 156 17 14 -227 261 -364 370 -370
293 -784 459 -1325 530 -120 16 -657 28 -800 18z"/>
        <path d="M4407 13673 c-4 -3 -7 -341 -7 -750 l0 -743 -855 0 -854 0 -11 -42
c-6 -24 -13 -48 -15 -55 -2 -7 12 -12 39 -15 24 -1 442 -2 930 0 l886 3 0 749
0 750 703 0 702 1 38 54 38 55 -794 0 c-436 0 -797 -3 -800 -7z"/>
        <path d="M14890 13674 c0 -4 16 -28 36 -55 l36 -49 622 0 623 0 59 55 59 54
-717 1 c-395 0 -718 -3 -718 -6z"/>
        <path d="M3200 13650 c-9 -16 -8 -20 5 -20 13 0 15 -38 15 -315 l0 -315 -50 0
-50 0 0 116 0 115 -52 -3 c-41 -2 -54 -7 -56 -20 -3 -15 4 -18 32 -18 l36 0 0
-115 0 -116 93 3 92 3 3 353 2 352 -30 0 c-19 0 -33 -7 -40 -20z"/>
        <path d="M3111 13452 c-14 -34 -9 -54 10 -35 6 6 9 23 7 39 l-3 29 -14 -33z"/>
        <path d="M3370 12980 l0 -240 70 0 70 0 0 -90 0 -91 -122 3 -123 3 -3 113 -3
113 -87 -3 -87 -3 -3 -112 -3 -113 -124 0 -125 0 -1 58 -1 57 -18 -50 c-10
-27 -19 -62 -19 -77 l-1 -28 165 0 165 0 0 110 0 110 50 0 49 0 3 -107 3 -108
163 -3 162 -2 0 130 0 130 -70 0 -70 0 0 200 0 200 50 0 50 0 0 -110 0 -111
98 3 97 3 3 108 3 107 49 0 50 0 0 -200 0 -200 -75 0 -76 0 3 -127 3 -128 80
0 c68 0 80 3 83 18 3 15 -5 17 -57 17 l-61 0 0 90 0 89 68 3 67 3 3 238 2 237
-95 0 -95 0 0 -110 0 -110 -55 0 -55 0 0 110 0 110 -90 0 -90 0 0 -240z"/>
        <path d="M5007 13143 c-4 -3 -7 -292 -7 -640 l0 -634 -1127 1 c-621 0 -1156 1
-1190 0 l-61 0 -11 -50 c-6 -28 -11 -53 -11 -55 0 -3 553 -5 1230 -5 l1229 0
11 43 c6 23 19 62 28 87 15 40 17 109 20 593 l3 547 227 0 227 0 33 54 c17 30
32 57 32 60 0 8 -625 8 -633 -1z"/>
        <path d="M15427 13143 c-13 -13 -8 -278 6 -297 12 -16 17 -13 60 33 43 46 47
54 47 101 l0 50 53 0 c51 0 54 2 112 60 l59 60 -165 0 c-91 0 -169 -3 -172 -7z"/>
        <path d="M2929 12988 c0 -7 0 -55 1 -105 l2 -93 -36 0 c-20 0 -36 -2 -36 -4 0
-2 -3 -11 -6 -20 -5 -14 3 -16 55 -16 l61 0 0 125 c0 118 -1 125 -20 125 -11
0 -20 -6 -21 -12z"/>
        <path d="M10845 12567 c-68 -23 -101 -44 -148 -97 -54 -60 -77 -121 -77 -205
0 -86 23 -146 81 -209 65 -72 129 -100 229 -100 62 -1 85 4 132 27 62 30 115
83 150 149 18 35 22 60 23 133 0 101 -15 142 -81 215 -72 79 -212 119 -309 87z"/>
        <path d="M8891 11394 c-63 -71 -156 -174 -207 -229 -295 -316 -453 -636 -509
-1028 -15 -107 -19 -437 -6 -537 7 -51 8 -53 18 -30 19 43 283 575 283 570 0
-3 -7 -68 -15 -145 -17 -163 -20 -493 -4 -633 56 -522 276 -937 669 -1263 88
-74 230 -172 237 -166 3 4 14 129 24 279 11 150 20 277 22 281 1 5 32 -52 69
-125 247 -497 621 -838 1157 -1057 68 -28 127 -51 132 -51 5 0 10 112 11 250
l3 250 334 -351 c183 -192 335 -348 338 -345 3 3 -5 87 -17 186 -12 100 -20
184 -17 186 3 3 40 -16 83 -41 216 -127 375 -282 532 -518 95 -142 126 -195
272 -463 l128 -235 7 253 c14 498 12 744 -8 847 -49 256 -109 437 -221 666
-238 486 -629 881 -1059 1067 -50 22 -231 82 -402 133 -604 183 -873 291
-1105 446 -325 217 -484 518 -560 1057 -24 170 -47 437 -56 642 -4 85 -9 172
-13 194 l-6 38 -114 -128z"/>
        <path d="M7880 11049 c-25 -10 -178 -70 -340 -134 -330 -130 -486 -207 -670
-329 -506 -338 -842 -821 -1000 -1441 -21 -82 -37 -151 -35 -153 2 -3 530 458
803 701 285 254 611 487 957 684 l120 69 107 309 c58 171 106 310 105 311 -1
1 -22 -7 -47 -17z"/>
        <path d="M2613 10792 l-133 -3 0 -54 0 -55 1199 0 1199 0 4 53 c2 28 4 53 3
54 -1 3 -2128 8 -2272 5z"/>
        <path d="M2470 10430 l0 -60 965 0 965 0 2 -747 3 -748 323 -3 c177 -1 322 1
322 5 0 5 -6 31 -13 58 l-13 50 -252 3 -252 2 -2 748 -3 747 -1022 3 -1023 2
0 -60z"/>
        <path d="M2470 10130 l0 -40 720 0 720 0 0 -1730 0 -1730 -270 0 c-148 0 -270
-2 -270 -5 0 -2 8 -20 17 -40 l17 -35 293 0 293 0 0 1810 0 1810 -760 0 -760
0 0 -40z"/>
        <path d="M2470 10010 c0 -18 7 -20 85 -20 l85 0 0 -90 0 -89 -72 -3 c-87 -4
-84 2 -73 -155 l7 -103 69 0 69 0 0 -95 0 -95 -59 0 c-54 0 -59 -2 -54 -20 5
-18 14 -20 79 -20 l74 0 0 135 0 135 -75 0 -75 0 0 85 0 84 73 3 72 3 3 133 3
132 -106 0 c-98 0 -105 -1 -105 -20z"/>
        <path d="M2790 9895 l0 -135 70 0 70 0 0 -85 0 -85 -70 0 -70 0 0 -135 0 -135
165 0 165 0 0 115 0 115 50 0 50 0 0 -315 0 -315 -45 0 -44 0 -3 108 -3 107
-167 3 -168 2 0 -130 0 -130 70 0 70 0 0 -85 0 -85 -75 0 -75 0 0 -140 0 -140
165 0 165 0 0 115 0 115 55 0 55 0 0 -115 0 -115 170 0 170 0 0 135 0 135 -75
0 -75 0 0 200 0 200 50 0 49 0 3 -107 3 -108 93 -3 92 -3 0 111 0 110 55 0 55
0 -2 -197 -3 -198 -72 -3 -73 -3 0 -129 0 -130 75 0 75 0 0 -200 0 -200 -55 0
-55 0 0 110 0 110 -170 0 -171 0 3 -132 3 -133 78 -3 77 -3 0 -84 0 -84 -77
-3 -78 -3 -3 -127 -3 -128 171 0 170 0 0 105 0 105 60 0 60 0 0 -200 0 -200
-80 0 -80 0 0 -130 0 -130 80 0 80 0 0 -200 0 -200 -60 0 -60 0 0 115 0 115
-95 0 -95 0 0 -115 0 -115 -50 0 -50 0 0 200 0 199 73 3 72 3 3 133 3 132
-241 0 -240 0 0 -72 c1 -52 7 -89 24 -128 22 -55 22 -55 69 -58 l47 -3 0 -97
c0 -82 4 -105 24 -147 l24 -50 1 168 1 167 -75 0 -75 0 0 90 0 90 200 0 201 0
-3 -92 -3 -93 -72 -3 -73 -3 0 -239 0 -240 90 0 90 0 0 115 0 115 55 0 55 0 0
-115 0 -115 100 0 100 0 -2 243 -3 242 -77 3 -78 3 0 84 0 84 78 3 77 3 0 240
0 240 -97 3 -98 3 0 -111 0 -110 -125 0 -125 0 0 90 0 90 75 0 76 0 -3 128 -3
127 -72 3 -73 3 0 89 0 90 125 0 124 0 3 -112 3 -113 90 0 90 0 3 243 2 242
-75 0 -75 0 0 90 0 89 73 3 72 3 3 238 2 237 -95 0 -95 0 0 -110 0 -110 -55 0
-55 0 0 110 0 110 -90 0 -90 0 0 -240 0 -240 75 0 75 0 0 -95 0 -95 -130 0
-130 0 0 115 0 115 -95 0 -95 0 0 -115 0 -115 -125 0 -125 0 0 100 0 100 75 0
75 0 0 125 0 125 -70 0 -70 0 0 90 0 90 125 0 124 0 3 -107 3 -108 90 0 90 0
0 350 0 350 -92 3 -93 3 0 -116 0 -115 -125 0 -125 0 0 95 0 95 70 0 70 0 0
130 0 130 -70 0 -70 0 0 90 0 90 125 0 125 0 0 -110 0 -110 90 0 90 0 0 110 0
110 125 0 125 0 0 -90 0 -90 -70 0 -70 0 0 -240 0 -240 90 0 90 0 0 110 0 110
55 0 55 0 0 -110 0 -110 95 0 95 0 0 240 0 240 -70 0 -70 0 0 90 0 90 60 0
c54 0 60 2 60 20 0 20 -5 21 -82 18 l-83 -3 0 -125 0 -125 73 -3 72 -3 0 -199
0 -200 -50 0 -50 0 0 110 0 110 -100 0 -100 0 0 -110 0 -110 -50 0 -50 0 0
200 0 200 70 0 70 0 0 130 0 130 -162 -2 -163 -3 -3 -107 -3 -108 -49 0 -50 0
0 110 0 110 -165 0 -165 0 0 -135z"/>
        <path d="M2554 9124 c3 -9 6 -18 6 -20 0 -2 18 -4 40 -4 l40 0 0 -90 c0 -89 0
-90 -25 -90 -18 0 -25 -5 -25 -20 0 -17 7 -20 45 -20 l45 0 0 130 0 130 -66 0
c-56 0 -65 -2 -60 -16z"/>
        <path d="M7974 8526 c-1 -207 -5 -293 -22 -416 -12 -85 -19 -156 -17 -158 2
-2 20 28 39 66 20 39 40 73 45 76 13 8 91 -55 145 -116 87 -100 109 -225 57
-327 -27 -52 -217 -317 -571 -796 -386 -522 -542 -738 -670 -930 -62 -93 -132
-195 -154 -225 l-40 -55 69 49 c599 423 1120 1016 1420 1616 134 268 185 424
185 564 0 179 -63 316 -265 576 -103 133 -141 189 -185 271 l-35 67 -1 -262z"/>
        <path d="M2630 8690 c0 -11 5 -20 10 -20 6 0 10 -15 10 -34 0 -18 8 -67 18
-107 l17 -74 3 114 c1 63 0 121 -2 128 -3 7 -17 13 -31 13 -18 0 -25 -5 -25
-20z"/>
        <path d="M2927 8264 c-4 -4 -7 -56 -7 -116 l0 -108 -45 0 -45 0 0 110 0 110
-49 0 c-44 0 -49 -2 -44 -20 3 -11 14 -20 24 -20 16 0 19 -8 19 -59 0 -33 5
-82 12 -110 l11 -51 84 0 83 0 0 110 0 110 130 0 131 0 -3 -87 -3 -88 -72 -3
-73 -3 0 -129 0 -130 75 0 75 0 0 -90 0 -90 -130 0 -130 0 0 110 0 110 -50 0
c-43 0 -50 -3 -50 -20 0 -16 7 -20 30 -20 l30 0 0 -79 c0 -43 5 -92 11 -110
l11 -31 159 0 159 0 0 130 0 130 -75 0 -75 0 0 90 0 90 75 0 76 0 -3 133 -3
132 -166 3 c-91 1 -168 -1 -172 -4z"/>
        <path d="M8755 7733 c-197 -448 -341 -904 -410 -1303 -105 -606 -79 -1194 76
-1755 17 -60 32 -112 35 -114 12 -12 458 439 553 559 537 677 804 1541 656
2125 -23 93 -74 227 -99 261 -14 18 -15 18 -67 0 -72 -26 -177 -25 -249 4 -30
12 -112 59 -183 106 -70 46 -145 93 -167 104 -29 15 -47 34 -65 70 -14 28 -27
50 -29 50 -2 0 -25 -48 -51 -107z"/>
        <path d="M4390 6905 l0 -605 -420 -2 -421 -3 33 -55 33 -55 445 0 445 0 3 608
2 607 443 0 442 0 43 55 43 55 -545 0 -546 0 0 -605z"/>
        <path d="M15990 7207 l0 -117 -285 0 -285 0 0 73 0 72 -70 -105 -70 -105 0
-94 c0 -80 -5 -108 -34 -196 -102 -304 -316 -594 -652 -884 -572 -495 -1522
-985 -2624 -1355 l-215 -72 -209 8 c-115 5 -213 5 -217 1 -6 -7 -27 -120 -85
-460 l-6 -32 94 5 c76 4 3906 144 3938 144 6 0 10 -72 10 -195 l0 -195 70 46
69 47 3 151 3 151 140 6 c77 4 172 7 212 8 l72 1 122 103 c67 56 130 108 140
116 18 13 19 59 19 1435 l0 1422 -70 69 -70 69 0 -117z m-5 -275 c0 -13 -263
-322 -274 -321 -9 1 -260 306 -267 324 -6 13 27 15 267 13 213 -2 274 -6 274
-16z m-427 -503 l-133 -152 -3 264 c-2 145 0 283 3 307 l6 42 130 -155 130
-155 -133 -151z m432 141 c0 -159 -2 -290 -4 -290 -11 0 -247 292 -244 302 6
16 232 277 241 278 4 0 7 -130 7 -290z m-136 -189 c83 -99 136 -172 136 -185
0 -24 -267 -399 -280 -394 -21 8 -290 375 -290 396 0 16 46 77 143 187 78 90
145 163 149 162 4 -1 68 -76 142 -166z m-579 -2089 c-5 -5 -2932 105 -3035
114 l-64 6 159 58 c392 141 773 305 1140 490 712 359 1230 734 1562 1133 70
84 229 315 235 341 2 6 4 -472 5 -1063 2 -591 1 -1076 -2 -1079z m277 1656
c68 -90 127 -168 131 -175 4 -7 -43 -81 -119 -185 -69 -95 -130 -177 -135
-182 -5 -6 -9 128 -9 347 0 196 2 357 4 357 3 0 60 -73 128 -162z m438 -179
c0 -209 -4 -328 -10 -324 -19 12 -242 314 -239 324 7 19 234 330 242 331 4 0
7 -149 7 -331z m-136 -219 c136 -179 137 -181 134 -228 l-3 -47 -280 0 -280 0
-3 28 c-3 21 14 52 74 135 145 199 214 292 218 292 2 0 65 -81 140 -180z m136
-856 l0 -437 -127 7 c-71 3 -199 9 -285 12 l-158 7 0 423 0 424 285 0 285 0 0
-436z"/>
        <path d="M10006 6933 c-77 -394 -100 -662 -93 -1051 5 -300 19 -432 68 -677
86 -428 238 -815 467 -1185 35 -58 70 -113 77 -123 12 -17 18 -10 58 65 185
341 386 1027 497 1698 61 367 26 717 -111 1095 l-29 80 -104 -3 c-130 -5 -201
12 -422 98 -87 35 -171 66 -185 70 -14 4 -60 33 -102 64 -42 31 -78 56 -80 56
-3 0 -21 -84 -41 -187z"/>
        <path d="M5040 7018 c0 -20 1 -21 20 -3 11 10 20 20 20 22 0 1 -9 3 -20 3 -14
0 -20 -7 -20 -22z"/>
        <path d="M3880 5766 c0 -14 85 -137 88 -127 3 8 73 11 247 11 134 0 246 4 249
8 3 5 8 32 12 60 l7 52 -302 0 c-165 0 -301 -2 -301 -4z"/>
        <path d="M7717 5190 c-3 -8 -22 -69 -42 -135 -108 -351 -390 -1003 -725 -1677
-35 -68 -53 -114 -42 -103 53 52 555 662 611 742 142 201 250 420 298 600 33
126 37 297 9 388 -32 105 -99 218 -109 185z"/>
        <path d="M9434 4844 c-11 -11 -49 -62 -83 -112 -232 -339 -617 -510 -1096
-488 -77 3 -161 9 -186 12 l-45 6 17 -188 c59 -620 176 -1064 378 -1433 l29
-54 66 89 c185 250 374 630 627 1261 220 550 324 843 317 900 l-3 28 -21 -21z"/>
        <path d="M9707 3950 c-17 -74 -62 -189 -151 -387 -67 -150 -90 -246 -83 -358
3 -61 12 -108 27 -145 12 -30 68 -185 124 -345 l102 -290 47 -8 c27 -4 92 -6
145 -5 l96 3 67 116 c60 104 366 757 357 763 -1 1 -37 22 -78 46 -186 107
-416 301 -516 434 -54 72 -101 161 -112 214 -8 37 -8 37 -25 -38z"/>
        <path d="M11783 3683 l-273 -3 0 -71 0 -71 620 7 620 8 0 -337 0 -336 -875 0
-876 0 -20 -47 c-12 -27 -25 -58 -30 -70 l-9 -23 975 0 975 0 0 475 0 475
-417 -2 c-230 -2 -541 -4 -690 -5z"/>
    </g>
</svg>
